               _     _
              | |   (_)                                      _
   _____  ____| |__  _  _____ _   _ _____ ____  _____ ____ _| |_
  (____ |/ ___)  _ \| || ___ | | | | ___ |    \| ___ |  _ (_   _)
  / ___ ( (___| | | | || ____|\ V /| ____| | | | ____| | | || |_
  \_____|\____)_| |_|_||_____) \_/ |_____)_|_|_|_____)_| |_| \__)


                  _             _               _
                 | |           | |             | |
      _   _ ____ | | ___   ____| |  _ _____  __| |
     | | | |  _ \| |/ _ \ / ___) |_/ ) ___ |/ _  | O
     | |_| | | | | | |_| ( (___|  _ (| ____( (_| | O
     |____/|_| |_|\_)___/ \____)_| \_)_____)\____|




    ##      ##  #######  ########  ##       ########
    ##  ##  ## ##     ## ##     ## ##       ##     ##
    ##  ##  ## ##     ## ##     ## ##       ##     ##
    ##  ##  ## ##     ## ########  ##       ##     ##
    ##  ##  ## ##     ## ##   ##   ##       ##     ##
    ##  ##  ## ##     ## ##    ##  ##       ##     ##
     ###  ###   #######  ##     ## ######## ########

     ######     ###    ##     ## ####  #######  ########
    ##    ##   ## ##   ##     ##  ##  ##     ## ##     ##
    ##        ##   ##  ##     ##  ##  ##     ## ##     ##
     ######  ##     ## ##     ##  ##  ##     ## ########
          ## #########  ##   ##   ##  ##     ## ##   ##
    ##    ## ##     ##   ## ##    ##  ##     ## ##    ##
     ######  ##     ##    ###    ####  #######  ##     ##
