


    .o oOOOOOOOo                                            OOOo
    Ob.OOOOOOOo  OOOo.      oOOo.                      .adOOOOOOO
    OboO"""""""""""".OOo. .oOOOOOo.    OOOo.oOOOOOo.."""""""""'OO
    OOP.oOOOOOOOOOOO "POOOOOOOOOOOo.   `"OOOOOOOOOP,OOOOOOOOOOOB'
    `O'OOOO'     `OOOOo"OOOOOOOOOOO` .adOOOOOOOOO"oOOO'    `OOOOo
    .OOOO'            `OOOOOOOOOOOOOOOOOOOOOOOOOO'            `OO
    OOOOO                 '"OOOOOOOOOOOOOOOO"`                oOO
   oOOOOOba.                .adOOOOOOOOOOba               .adOOOOo.
  oOOOOOOOOOOOOOba.    .adOOOOOOOOOO@^OOOOOOOba.     .adOOOOOOOOOOOO
 OOOOOOOOOOOOOOOOO.OOOOOOOOOOOOOO"`  '"OOOOOOOOOOOOO.OOOOOOOOOOOOOO
 "OOOO"       "YOoOOOOMOIONODOO"`  .   '"OOROAOPOEOOOoOY"     "OOO"
    Y           'OOOOOOOOOOOOOO: .oOOo. :OOOOOOOOOOO?'         :`
    :            .oO%OOOOOOOOOOo.OOOOOO.oOOOOOOOOOOOO?         .
    .            oOOP"%OOOOOOOOoOOOOOOO?oOOOOO?OOOO"OOo
                 '%o  OOOO"%OOOO%"%OOOOO"OOOOOO"OOO':
                      `$"  `OOOO' `O"Y ' `OOOO'  o             .
    .                  .     OP"          : o     .
                              :
                              .
              _____       ___       ___  ___   _____  
             /  ___|     /   |     /   |/   | | ____| 
             | |        / /| |    / /|   /| | | |__   
             | |  _    / / | |   / / |__/ | | |  __|  
             | |_| |  / /  | |  / /       | | | |___  
             \_____/ /_/   |_| /_/        |_| |_____| 

                 _____   _     _   _____   _____   
                /  _  \ | |   / / | ____| |  _  \  
                | | | | | |  / /  | |__   | |_| |  
                | | | | | | / /   |  __|  |  _  /  
                | |_| | | |/ /    | |___  | | \ \  
                \_____/ |___/     |_____| |_|  \_\